<svg xmlns="http://www.w3.org/2000/svg" width="59.39" height="61" viewBox="0 0 59.39 61">
  <path id="Path_6628" data-name="Path 6628" d="M59.022,52.145,52.8,41.778l.557-4.763h.792A2.549,2.549,0,0,0,56.7,34.468V31.552a2.549,2.549,0,0,0-2.546-2.546H50.657v-3.34c0-.009,0-.018,0-.027a.889.889,0,0,0-.194-.556h0L47.378,21.2V17.947A1.95,1.95,0,0,0,45.43,16H41.838c-.023-.046-.046-.091-.069-.134A11.075,11.075,0,0,0,38.142,12.7a1.42,1.42,0,0,1-.65-1.2V9.129a1.162,1.162,0,0,0,.646-1.04V3.117A3.121,3.121,0,0,0,35.021,0H31.627A3.121,3.121,0,0,0,28.51,3.117V8.089a1.161,1.161,0,0,0,.646,1.04V11.5a1.421,1.421,0,0,1-.651,1.2c-.324.209-.688.453-1.058.716,0-.069,0-.139,0-.208a4.766,4.766,0,1,0-9.424,1c.107.507.207.979.3,1.419a3.41,3.41,0,0,0-3.79,5.364,3.368,3.368,0,0,0,.515.511l2.66,2.144a7.506,7.506,0,0,0-2.545,5.36H10.9l-.186-.35.083-.044c2.857-1.52,5.24-4.016,4.267-5.846s-4.375-1.25-7.232.27l-.083.045-1.2-2.258.084-.044a11.877,11.877,0,0,0,3.46-2.666c1.331-1.584,1.076-2.672.806-3.18S9.871,13.6,7.813,13.823A11.887,11.887,0,0,0,3.669,15.2l-.083.045-.9-1.692a6.376,6.376,0,0,1-.757-3.025A6.457,6.457,0,0,1,14.086,7.492l1.539,2.9A.894.894,0,0,0,17.2,9.548l-1.54-2.9A8.243,8.243,0,1,0,1.108,14.395L8.88,29.006H5.241a2.549,2.549,0,0,0-2.546,2.546v2.917a2.549,2.549,0,0,0,2.546,2.546h.792l.558,4.763L.369,52.145a2.578,2.578,0,0,0,1.848,3.878A2.575,2.575,0,0,0,4.789,54.8l2.782-4.636.2,1.721a.894.894,0,0,0,.887.79.884.884,0,0,0,.1-.006.894.894,0,0,0,.784-.991l-.47-4.024L15.46,37.015H43.932l6.383,10.637-1.122,9.587a2.233,2.233,0,0,1-2.219,1.975H12.416A2.233,2.233,0,0,1,10.2,57.237l-.236-2.015a.893.893,0,0,0-1.775.208l.235,2.014A4.021,4.021,0,0,0,12.417,61H46.975a4.02,4.02,0,0,0,3.994-3.555l.852-7.285L54.6,54.8a2.577,2.577,0,1,0,4.419-2.652ZM8.675,24.614c2.878-1.531,4.683-1.257,4.815-1.009s-.65,1.9-3.528,3.429l-.083.044-1.287-2.42.083-.044ZM4.508,16.781A10.228,10.228,0,0,1,8,15.6c.888-.094,1.279.093,1.322.172s-.021.508-.6,1.192A10.227,10.227,0,0,1,5.8,19.2l-.083.044-1.287-2.42.083-.045ZM51.3,39.269l-1.353-2.254h1.616ZM33.178,29.006V25.95L36,22.409H46.053l1.858,2.336H43.863a.894.894,0,1,0,0,1.787H48.87v2.474ZM45.591,17.947v2.675H36.458V17.947a.161.161,0,0,1,.161-.161H45.43a.161.161,0,0,1,.161.161ZM31.627,1.787h3.395a1.332,1.332,0,0,1,1.33,1.33V7.462H30.3V3.117a1.332,1.332,0,0,1,1.33-1.33ZM29.475,14.2a3.2,3.2,0,0,0,1.468-2.7V9.249h4.762V11.5a3.2,3.2,0,0,0,1.467,2.7A17.308,17.308,0,0,1,39.584,16H36.619a1.95,1.95,0,0,0-1.948,1.948V21.2l-3.086,3.878a.892.892,0,0,0-.195.556v3.369H30.2a7.509,7.509,0,0,0-2.544-5.36l1.078-.869,1.58-1.273A3.429,3.429,0,0,0,30.832,21a3.411,3.411,0,0,0-2.987-5.549c-.053.006-.105.012-.157.02.489-.39,1.095-.82,1.787-1.267Zm-3.1,4.626c.246-.348.47-1.48,1.655-1.6A1.624,1.624,0,0,1,29.2,20.111l-1.582,1.275-1.5,1.207q-.243-.125-.5-.233Zm-3.684-8.6A2.982,2.982,0,0,1,25.6,13.838l-.347,1.642c0,.009,0,.018-.006.027L23.9,21.861a7.6,7.6,0,0,0-2.429,0l-.011-.052c-.31-1.471-.643-3.047-1.685-7.975a2.976,2.976,0,0,1,2.911-3.609Zm-6.76,9.64a1.624,1.624,0,1,1,2.706-1.76l.372.723c.336,1.588.525,2.487.707,3.349l.039.182q-.253.108-.5.233a39.941,39.941,0,0,1-3.328-2.727Zm6.76,3.685a5.742,5.742,0,0,1,5.729,5.455H16.958a5.742,5.742,0,0,1,5.729-5.455ZM7.832,37.015H9.449L8.1,39.269ZM3.256,53.877a.788.788,0,0,1-.788.376h0A.791.791,0,0,1,1.9,53.064L8.275,42.443l0,0,3.5-5.832c.012-.019.024-.039.035-.059L13.761,33.3a.79.79,0,0,1,1.355.813L14.2,35.637c-.01.016-.02.032-.029.048Zm13.276-18.65.116-.193a2.577,2.577,0,1,0-4.419-2.652l-1.708,2.844H5.241a.76.76,0,0,1-.759-.759V31.552a.76.76,0,0,1,.759-.759h48.91a.76.76,0,0,1,.759.759v2.917a.76.76,0,0,1-.759.759h-5.28l-1.707-2.844a2.577,2.577,0,1,0-4.419,2.652l.115.193ZM56.924,54.253a.832.832,0,0,1-.788-.376L44.276,34.116a.79.79,0,1,1,1.355-.813l5.481,9.134,0,.007L57.49,53.065a.791.791,0,0,1-.566,1.189Zm0,0" transform="translate(-0.001 0)" fill="#707070"/>
</svg>
