<svg xmlns="http://www.w3.org/2000/svg" width="36.792" height="41.067" viewBox="0 0 36.792 41.067">
  <path id="Path_6572" data-name="Path 6572" d="M19.645,3.422a5.133,5.133,0,0,0-5.133,5.133H24.778A5.133,5.133,0,0,0,19.645,3.422Zm5.133,8.556v1.711a1.711,1.711,0,1,0,3.422,0V11.978h2.091a1.713,1.713,0,0,1,1.7,1.511l2.616,22.244a1.71,1.71,0,0,1-1.7,1.911H6.382a1.71,1.71,0,0,1-1.7-1.911L7.3,13.489A1.713,1.713,0,0,1,9,11.978H11.09v1.711a1.711,1.711,0,1,0,3.422,0V11.978ZM11.09,8.556H9a5.134,5.134,0,0,0-5.1,4.533L1.285,35.333a5.133,5.133,0,0,0,5.1,5.734H32.908a5.133,5.133,0,0,0,5.1-5.734L35.389,13.088a5.134,5.134,0,0,0-5.1-4.533H28.2a8.556,8.556,0,0,0-17.111,0Z" transform="translate(-1.249)" fill="#fd823d" fill-rule="evenodd"/>
</svg>
